train lr0.0010000000474974513 decay: 0.0
Validating  acc: 0.45987654320987653 p: 0.9738562091503268 r: 0.45987654320987653 f1: 0.6247379454926625
new best score
Testing  acc: 0.4254742547425474 p: 0.9874213836477987 r: 0.4254742547425474 f1: 0.5946969696969697

train lr0.0010000000474974513 decay: 0.0
Validating  acc: 0.7376543209876543 p: 0.93359375 r: 0.7376543209876543 f1: 0.8241379310344827
new best score
Testing  acc: 0.7046070460704607 p: 0.9629629629629629 r: 0.7046070460704607 f1: 0.81377151799687

train lr0.0010000000474974513 decay: 0.0
Validating  acc: 0.7808641975308642 p: 0.8815331010452961 r: 0.7808641975308642 f1: 0.8281505728314239
new best score
Testing  acc: 0.7831978319783198 p: 0.9088050314465409 r: 0.7831978319783198 f1: 0.8413391557496361

train lr0.0010000000474974513 decay: 0.0
Validating  acc: 0.7777777777777778 p: 0.8780487804878049 r: 0.7777777777777778 f1: 0.8248772504091654
Testing  acc: 0.7804878048780488 p: 0.9085173501577287 r: 0.7804878048780488 f1: 0.8396501457725948

train lr0.0010000000474974513 decay: 0.0
Validating  acc: 0.8055555555555556 p: 0.8312101910828026 r: 0.8055555555555556 f1: 0.8181818181818182
Testing  acc: 0.7886178861788617 p: 0.8558823529411764 r: 0.7886178861788617 f1: 0.8208744710860366

train lr0.0010000000474974513 decay: 0.0
Validating  acc: 0.8240740740740741 p: 0.8115501519756839 r: 0.8240740740740741 f1: 0.8177641653905053
Testing  acc: 0.7940379403794038 p: 0.8443804034582133 r: 0.7940379403794038 f1: 0.8184357541899442

train lr0.0010000000474974513 decay: 0.0
Validating  acc: 0.8703703703703703 p: 0.7193877551020408 r: 0.8703703703703703 f1: 0.7877094972067039
Testing  acc: 0.8265582655826558 p: 0.7721518987341772 r: 0.8265582655826558 f1: 0.7984293193717277

train lr0.0010000000474974513 decay: 0.0
Validating  acc: 0.8425925925925926 p: 0.7711864406779662 r: 0.8425925925925926 f1: 0.8053097345132744
Testing  acc: 0.8075880758807588 p: 0.8370786516853933 r: 0.8075880758807588 f1: 0.8220689655172413

train lr0.0010000000474974513 decay: 0.0
Validating  acc: 0.8240740740740741 p: 0.7585227272727273 r: 0.8240740740740741 f1: 0.7899408284023668
early stopping
