train lr0.0010000000474974513 decay: 0.0
Validating  acc: 0.8149466192170819 p: 0.6897590361445783 r: 0.8149466192170819 f1: 0.7471451876019577
new best score
Testing  acc: 0.875 p: 0.6862745098039216 r: 0.875 f1: 0.7692307692307692

train lr0.0010000000474974513 decay: 0.0
Validating  acc: 0.8540925266903915 p: 0.718562874251497 r: 0.8540925266903915 f1: 0.7804878048780488
new best score
Testing  acc: 0.8875 p: 0.6943765281173594 r: 0.8875 f1: 0.7791495198902605

train lr0.0010000000474974513 decay: 0.0
Validating  acc: 0.7295373665480427 p: 0.8951965065502183 r: 0.7295373665480427 f1: 0.8039215686274509
new best score
Testing  acc: 0.80625 p: 0.9181494661921709 r: 0.80625 f1: 0.8585690515806988

train lr0.0010000000474974513 decay: 0.0
Validating  acc: 0.7900355871886121 p: 0.888 r: 0.7900355871886121 f1: 0.8361581920903955
new best score
Testing  acc: 0.825 p: 0.8770764119601329 r: 0.825 f1: 0.8502415458937198

train lr0.0010000000474974513 decay: 0.0
Validating  acc: 0.7758007117437722 p: 0.8934426229508197 r: 0.7758007117437722 f1: 0.8304761904761905
Testing  acc: 0.821875 p: 0.8855218855218855 r: 0.821875 f1: 0.8525121555915721

train lr0.0010000000474974513 decay: 0.0
Validating  acc: 0.800711743772242 p: 0.8858267716535433 r: 0.800711743772242 f1: 0.8411214953271028
new best score
Testing  acc: 0.83125 p: 0.8636363636363636 r: 0.83125 f1: 0.8471337579617835

train lr0.0010000000474974513 decay: 0.0
Validating  acc: 0.7295373665480427 p: 0.9030837004405287 r: 0.7295373665480427 f1: 0.8070866141732284
Testing  acc: 0.796875 p: 0.901060070671378 r: 0.796875 f1: 0.845771144278607

train lr0.0010000000474974513 decay: 0.0
Validating  acc: 0.7259786476868327 p: 0.8908296943231441 r: 0.7259786476868327 f1: 0.8
Testing  acc: 0.790625 p: 0.9068100358422939 r: 0.790625 f1: 0.8447412353923205

train lr0.0010000000474974513 decay: 0.0
Validating  acc: 0.7544483985765125 p: 0.8760330578512396 r: 0.7544483985765125 f1: 0.8107074569789675
Testing  acc: 0.79375 p: 0.8850174216027874 r: 0.79375 f1: 0.8369028006589785

train lr0.0010000000474974513 decay: 0.0
Validating  acc: 0.6690391459074733 p: 0.9038461538461539 r: 0.6690391459074733 f1: 0.7689161554192229
Testing  acc: 0.721875 p: 0.9166666666666666 r: 0.721875 f1: 0.8076923076923077

train lr0.0010000000474974513 decay: 0.0
Validating  acc: 0.7153024911032029 p: 0.8854625550660793 r: 0.7153024911032029 f1: 0.7913385826771654
early stopping
