train lr0.0010000000474974513 decay: 0.0
Validating  acc: 0.0 p: 0 r: 0.0 f1: 0
new best score
Testing  acc: 0.0 p: 0 r: 0.0 f1: 0

train lr0.0010000000474974513 decay: 0.0
Validating  acc: 0.0 p: 0 r: 0.0 f1: 0
new best score
Testing  acc: 0.0 p: 0 r: 0.0 f1: 0

train lr0.0010000000474974513 decay: 0.0
Validating  acc: 0.0 p: 0 r: 0.0 f1: 0
new best score
Testing  acc: 0.0 p: 0 r: 0.0 f1: 0

train lr0.0010000000474974513 decay: 0.0
Validating  acc: 0.0 p: 0 r: 0.0 f1: 0
new best score
Testing  acc: 0.0 p: 0 r: 0.0 f1: 0

train lr0.0010000000474974513 decay: 0.0
Validating  acc: 0.0 p: 0 r: 0.0 f1: 0
new best score
Testing  acc: 0.0 p: 0 r: 0.0 f1: 0

train lr0.0010000000474974513 decay: 0.0
Validating  acc: 0.0 p: 0 r: 0.0 f1: 0
new best score
Testing  acc: 0.0 p: 0 r: 0.0 f1: 0

train lr0.0010000000474974513 decay: 0.0
Validating  acc: 0.0 p: 0 r: 0.0 f1: 0
new best score
Testing  acc: 0.0 p: 0 r: 0.0 f1: 0

train lr0.0010000000474974513 decay: 0.0
Validating  acc: 0.0 p: 0 r: 0.0 f1: 0
new best score
Testing  acc: 0.0 p: 0 r: 0.0 f1: 0

train lr0.0010000000474974513 decay: 0.0
Validating  acc: 0.0 p: 0.0 r: 0.0 f1: 0
new best score
Testing  acc: 0.0 p: 0 r: 0.0 f1: 0

train lr0.0010000000474974513 decay: 0.0
Validating  acc: 0.0 p: 0 r: 0.0 f1: 0
new best score
Testing  acc: 0.0 p: 0 r: 0.0 f1: 0

